dl
doc
backup
Old_Playlists
.bulk
michel-thomas-russian
Russian Foundation Course Disc 7
Russian Foundation Course Disc 1
mp4
Russian Foundation Course Disc 5
Russian Foundation Course Disc 3
Russian Foundation Course Disc 8
Russian Foundation Course Disc 2
Russian Foundation Course Disc 6
Russian Foundation Course Disc 4
202
xournal
nikolai-drawing
.music
productivity
days
backup
school
archive
brainstorming
packing
cv
tex
jjot
jot
.cell
ref
logistics
mcgill_invoices
latex
workshops
hackathon
latex-mcgill
books
jot
tech
scripts
docs
groff
tex
food
school
personal
ctf
ref
music
learn
slum
code
sh
kotlin
META_INF
python
ocaml
clj
c++
planning
Media
prakash
www.cs.mcgill.ca
~prakash
Pubs
image
index
Courses
599
ProjectPapers
Assignments
Hw2
Hw1
Hw4
Hw3
Notes
302
Assignments
Hw2
Hw1
Hw4
Hw3
Notes
Talks
Images
ICALP09
PrakashFest
.mp3
pic
from_phone
favorites
from_facebook
profile-pics
wall
burgundy
music
Tyler, The Creator - IGOR (2019)
Beatles
Rodriguez - 1970 - Cold Fact [Light in the Attic, LITA036]
Artwork
Rodriguez - Coming from Reality 1971
black midi - Schlagenheim
Case Study 01
videos
movies
Fight Club (1999) [1080p]
Darbareye Elly (About Elly) (Iran, 2009)
Kill Bill Vol 2 (2004)
YOU.S02.COMPLETE.720p.NF.WEBRip.x264-GalaxyTV[TGx]
www.Torrenting.com - Trump.An.American.Dream.S01E01.480p.x264-mSD
Screens
A Separation (2011) 720p BRrip_sujaidr
Moonrise Kingdom (2012) [1080p]
Lemony.Snickets.A.Series.of.Unfortunate.Events.Full.Season.1.720p.WebRip.EN-Sub.x264-[MULVAcoded]
The Hobbit The Desolation of Smaug (2013) [1080p]
A Series of Unfortunate Events S03 Season 3 Complete - 720p HDTV x264 - MovieGlide
Shrek (2001) [1080p]
Other
Wild.Wild.Country.S01E05.WEB.x264-STRiFE[ettv]
Wild.Wild.Country.S01E02.WEB.x264-AMRAP[ettv]
How to Get Away with Murder S01 Season 1 Complete HDTV 480p x264 AAC E-Subs [GWC]
Django Unchained (2012) [1080p]
Wild.Wild.Country.S01E03.WEB.x264-AMRAP[ettv]
www.Torrenting.com - Trump.An.American.Dream.S01E02.The.Gambler.480p.x264-mSD
Screens
The Hobbit An Unexpected Journey (2012) [1080p]
Boyhood (2014)
You.S01.SEASON.01.COMPLETE.720p.WEB-DL.2CH.x265.HEVC-PSA
Fantastic Mr Fox (2009)
[TorrentCouch.com].A.Series.of.Unfortunate.Events.S02.Complete.1080p.WEB-HD.x264.ESubs.[4.6GB].[Season.2.Full]
Star.Wars.Episode.VIII.The.Last.Jedi.2017.1080p.BrRip.6CH.x265.HEVC-PSA
Reservoir Dogs (1992) [1080p]
Kill Bill Vol 1 (2003) [1080p]
Exit.Through.The.Gift.Shop.2010.1080p.BluRay.x264.anoXmous
The Lord of the Rings The Return of the King THEATRICAL EDITION (2003) [1080p]
22 Jump Street (2014)
Inglourious Basterds 2009 Inglorious Bastards DVDRip x264
Sample & Screenshots
Solo A Star Wars Story (2018) [BluRay] [1080p] [YTS.AM]
Isle.of.Dogs.2018.HDRip.XviD.AC3-EVO
Wild.Wild.Country.S01E04.WEB.x264-STRiFE[ettv]
Firefly
Wild.Wild.Country.S01E06.WEB.x264-STRiFE[ettv]
The Darjeeling Limited 2007.1080p.BluRay.x264 . NVEE
seen
Juno 2007 1080p BluRay x264 AAC - Ozlem
Eternal.Sunshine.of.the.Spotless.Mind.2004.1080p.BluRay.x264.anoXmous
Napoleon Dynamite (2004) [1080p]
How to Sell Drugs Online (Fast)
Subtitles
The.Stanford.Prison.Experiment.2015.BRRip.XViD-ETRG
The Lord of the Rings The Fellowship of the Ring THEATRICAL EDITION (2001) [1080p]
The Lord of the Rings The Two Towers THEATRICAL EDITION (2002) [1080p]
The.Grand.Budapest.Hotel.2014.720p.BluRay.x264-NeZu
Sample
Screenshots
Pulp Fiction (1994) [1080p]
Other
The Pirate Bay Awake From Keyboard
Death At A Funeral (2007)
CitizenFour
Searching For  Sugar Man 2012 BRRip XviD AC3 - HDSI
Wild.Wild.Country.S01E01.WEB.x264-AMRAP[ettv]
Rogue One (2016) [1080p] [YTS.AG]
[GamePersia] Death Note (Complete Series)
Jeff, Who Lives at Home (2011)
How to Get Away with Murder Season 2 720p- mRs
Star.Wars.Episode.VII.The.Force.Awakens.2015.BRRip.XViD.AC3-ETRG
The.Hobbit.Battle.Of.The.Five.Armies.2014.1080p.WEBRip.x264-tomcat12[ETRG]
Images
yt
Thomas Frank
subtitles
Tom Wildenhain
Ollsten
LearnLinuxTV
WisdomTalks
Dose of Truth
Julie Tecson
Crazy Cody's Creatures
Matt D'Avella
subtitles
PowerfulJRE
Kirk Wilcox
Clojure
AsapSCIENCE
Corey Schafer
Jane Street
NA
Chris Titus Tech
Sidenote Podcast
BBC Radio 4
ManOfAllCreation
Telusko
Swansea Academy of Advanced Computing
Smartherd
DistroTube
Thomas Frank's Get Back in the School Mindset
UBports
video knowingship
iXsystems, Inc.
wisdmlab
H3 Podcast
Mycroft AI
Gray Winsler
thenewboston
Android Developers
Gabriele Rastello
Ayn Rand Institute
MG
Lisa Nichols
Blank on Blank
blondiebytes
TEDx Talks
Wolfgang's Channel
Kai Hendry
After Skool
Luke Smith
subtitles
lists
subtitles
unicks.eu
memes
printme
proj
tepid
tepid-work
tepid-server
.git
refs
heads
remotes
origin
tags
branches
objects
info
pack
info
hooks
logs
refs
heads
remotes
origin
src
test
java
ca
mcgill
science
tepid
server
db
util
auth
printing
rest
resources
META-INF
ps
V3
V4
main
java
ca
mcgill
science
tepid
server
server
db
util
auth
printing
loadbalancers
rest
in
waffl
q
resources
META-INF
webapp
WEB-INF
integration-test
java
ca
mcgill
science
tepid
server
db
auth
printing
rest
resources
migration
test
resources
migrations
src
migrations
sql
doc
.gradle
vcs-1
buildOutputCleanup
5.5
fileChanges
vcsMetadata-1
fileContent
javaCompile
fileHashes
executionHistory
.idea
gradle
wrapper
build
tmp
compileJava
war
reports
tests
test
classes
packages
css
js
ktlint
kotlin
compileIntegrationTestKotlin
caches-jvm
inputs
lookups
jvm
kotlin
sessions
compileKotlin
caches-jvm
inputs
lookups
jvm
kotlin
compileTestKotlin
caches-jvm
inputs
lookups
jvm
kotlin
generated
sources
annotationProcessor
java
main
classes
java
main
ca
mcgill
science
tepid
server
printing
loadbalancers
in
waffl
q
kotlin
test
ca
mcgill
science
tepid
server
db
util
auth
printing
rest
META-INF
integrationTest
ca
mcgill
science
tepid
server
db
auth
printing
rest
META-INF
main
ca
mcgill
science
tepid
server
server
db
util
auth
printing
rest
META-INF
test-results
test
binary
libs
resources
test
META-INF
ps
V3
V4
integrationTest
main
META-INF
graph
graphtutorial
.git
refs
heads
tags
branches
objects
7b
2d
cc
72
0d
c8
df
4b
91
8b
9a
48
de
11
c4
68
12
7c
d7
bd
fe
85
cd
b9
0b
cf
d3
5a
28
54
47
info
81
fc
c5
9b
8e
f5
pack
ee
6a
3f
e6
f7
5f
ba
fb
66
22
78
06
e1
dc
info
hooks
logs
refs
heads
target
maven-archiver
maven-status
maven-compiler-plugin
testCompile
default-testCompile
compile
default-compile
classes
com
contoso
test-classes
com
contoso
surefire-reports
generated-test-sources
test-annotations
generated-sources
annotations
src
test
java
com
contoso
main
java
com
contoso
resources
com
contoso
.gradle
vcs-1
buildOutputCleanup
6.1.1
fileChanges
vcsMetadata-1
fileHashes
executionHistory
checksums
gradle
wrapper
journaling
slum
exit
wear
payment
order
spreadsheet
process
completed-parts
google-form
automation
invoices
.backup
groff
images
invoices-redone
ms
pdf
web
content
.git
refs
heads
remotes
yee
tags
branches
objects
62
9e
d1
info
ff
b5
pack
info
hooks
logs
refs
heads
remotes
yee
unused-files
ninshou-master
test
ninshou
src
ninshou
s
clas
responses
one
readings
pdf
docx
info
prag
handouts
info
studying
read
asg
two
one
comp
resources
info
asg
four
two
one
three
topics
asg
one
u3fall
phon
slides
notes
xournal
tex
pdf
conf
sol
pdfjoin
pdfs
midterm
info
assignments
done
two
tex
final
comp
webbook
figures
assets
chapters
foundations-computational-linguistics.github.io
figures
new
foundations-computational-linguistics.github.io
figures
assets
chapters
assets
chapters
notes
tex
pdfs
midterm
assignments
five
time
done
four
two
one
submission
clj
ps1
test
ps1
target
default
stale
classes
META-INF
maven
ps1
ps1
src
ps1
doc
resources
three
math
review
notes
xournal
tut
tex
pdfs
info
ww
done
four
five
two
one
three
assignments
done
four
two
one
three
solutions
final
sem
notes
xournal
tex
pdfs
midterm
info
assignments
done
four
seven
five
six
two
tex
nine
one
C
eight
three
final
c++
slides
practice
exs
recordings
asg
one
theo
pres
info
asg
two
one
.scripts
output
input
.git
refs
heads
remotes
origin
tags
branches
objects
82
1f
76
61
b1
f4
64
08
ca
cc
18
58
72
a4
0d
26
05
4f
87
c8
df
c9
3c
5c
4d
39
94
8f
93
d9
31
a9
db
2c
bc
43
d2
19
a3
ab
15
0c
3b
27
55
b8
a5
50
6d
8c
98
73
84
37
1b
1d
c3
63
d7
bd
fe
85
96
cd
7a
99
10
b9
38
42
d3
a8
ed
d6
ad
67
2e
70
d0
f6
47
33
f8
02
info
ff
81
fc
57
f3
c5
d8
9c
a7
00
a0
09
52
7f
8e
e9
pack
6a
e6
f7
60
51
04
5f
4a
ba
3d
fb
3a
e8
c7
66
89
25
23
e1
35
75
56
bf
info
hooks
logs
refs
heads
remotes
origin
.testing
.old_scripts
gtd
testing
archive
.archive
cwm
